pred_kmeans_mllib,n_obs,class_balance
0,18731,0.13789973840158026
3,13748,0.032586558044806514
2,6269,0.7390333386505025
1,2080,0.6447115384615385
4,1656,0.028985507246376812
5,909,0.033003300330033
6,15,0.13333333333333333
