KPI,Description
year,Year
month,Month
user_account_id,Unique customer identifier
user_lifetime,Customer aging in months
user_intake,New customer identifier
user_no_outgoing_activity_in_days,Number of days when customer did not do any action
user_account_balance_last,Customer account balance at the end of the period
user_spendings,Revenue spend in the period
user_has_outgoing_calls,Customer made at least 1 call
user_has_outgoing_sms,Customer made at least 1 sms
user_use_gprs,Customer used data at least once
user_does_reload,Customer has done at least 1 recharge
reloads_inactive_days,Number of days without recharge
reloads_count,Number of recharges
reloads_sum,Amount of recharges
calls_outgoing_count,Number of outgoing calls
calls_outgoing_spendings,Amount spent on outgoing calls
calls_outgoing_duration,Duration of all outgoing calls
calls_outgoing_spendings_max,The most expensive call per period
calls_outgoing_duration_max,The longest call per period
calls_outgoing_inactive_days,Number of days without outgoing calls
calls_outgoing_to_onnet_count,Number of calls to on-net
calls_outgoing_to_onnet_spendings,Amount spent on outgoing calls to on-net
calls_outgoing_to_onnet_duration,Duration of all outgoing calls to on-net
calls_outgoing_to_onnet_inactive_days,Number of days without outgoing call to on-net
calls_outgoing_to_offnet_count,Number of calls to off-net
calls_outgoing_to_offnet_spendings,Amount spent on outgoing calls to off-net
calls_outgoing_to_offnet_duration,Duration of all outgoing calls to off-net
calls_outgoing_to_offnet_inactive_days,Number of days without outgoing call to off-net
calls_outgoing_to_abroad_count,Number of calls to other countries
calls_outgoing_to_abroad_spendings,Amount spent on outgoing calls to other countries
calls_outgoing_to_abroad_duration,Duration of all outgoing calls to other countries
calls_outgoing_to_abroad_inactive_days,Number of days without outgoing call to other countries
sms_outgoing_count,Number of outgoing sms messages
sms_outgoing_spendings,Amount spend on outgoing sms messages
sms_outgoing_spendings_max,The most expensive sms message
sms_outgoing_inactive_days,Number of days without outgoing sms message
sms_outgoing_to_onnet_count,Number of outgoing sms messages to on-net
sms_outgoing_to_onnet_spendings,Amount spend on outgoing sms messages to on-net
sms_outgoing_to_onnet_inactive_days,Number of days without outgoing sms message to on-net
sms_outgoing_to_offnet_count,Number of outgoing sms messages to off-net
sms_outgoing_to_offnet_spendings,Amount spend on outgoing sms messages to off-net
sms_outgoing_to_offnet_inactive_days,Number of days without outgoing sms message to off-net
sms_outgoing_to_abroad_count,Number of outgoing sms messages to other countries
sms_outgoing_to_abroad_spendings,Amount spend on outgoing sms messages to other countries
sms_outgoing_to_abroad_inactive_days,Number of days without outgoing sms message to other countries
sms_incoming_count,Number of incoming sms messages
sms_incoming_spendings,Amount spent on incoming sms messages
sms_incoming_from_abroad_count,Number of incoming sms messages from other countries
sms_incoming_from_abroad_spendings,Amount spend on incoming sms messages from other countries
gprs_session_count,Number of data connections
gprs_usage,Number of kb used
gprs_spendings,Money amount spent on data
gprs_inactive_days,Number of days without data usage
last_100_reloads_count,Number of recharges over the last 100 days
last_100_reloads_sum,Amount of recharges over the last 100 days
last_100_calls_outgoing_duration,Calls outgoing duration over the last 100 days
last_100_calls_outgoing_to_onnet_duration,Calls outgoing to on-net duration over last 100 days
last_100_calls_outgoing_to_offnet_duration,Calls outgoing to off-net duration over last 100 days
last_100_calls_outgoing_to_abroad_duration,Calls outgoing to other countries duration over last 100 days
last_100_sms_outgoing_count,Number of SMS messages over 100 days
last_100_sms_outgoing_to_onnet_count,Number of SMS messages to on-net over 100 days
last_100_sms_outgoing_to_offnet_count,Number of SMS messages to off-net over 100 days
last_100_sms_outgoing_to_abroad_count,Number of SMS messages to other countries over 100 days
last_100_gprs_usage,Number of kb used over last 100 days
